[
	{
		"type": "parking",
		"id": "parking1",
		"name":" A bai do xe A",
		"address":"so 117 ta quang buu",
		"numberOfBikes":100,
		"numberOfeBikes":79,
		"numberOfTwinBikes":83,
		"numberOfEmtyDocks":10,
		"distance":2,
		"time":25
	},
	{
		"type": "parking",
		"id": "parking2",
		"name":" B bai do xe B",
		"address":"so 20 tan mai",
		"numberOfBikes":67,
		"numberOfeBikes":93,
		"numberOfTwinBikes":75,
		"numberOfEmtyDocks":8,
		"distance":1,
		"time":20		
	},
	{
		"type": "parking",
		"id": "parking3",
		"name":" C bai do xe C ",
		"address":"so 17 quang nam",
		"numberOfBikes":84,
		"numberOfeBikes":74,
		"numberOfTwinBikes":69,
		"numberOfEmtyDocks":7,
		"distance":3,
		"time":14
	}
	
]



